module xploit

go 1.22.2

require (
	github.com/chzyer/readline v1.5.1
	github.com/fatih/color v1.16.0
	github.com/likexian/whois v1.15.2
	github.com/pkg/errors v0.9.1
	github.com/tidwall/pretty v1.2.1
	github.com/anvie/port-scanner v0.0.0-20180225151059-8159197d3770 
	github.com/mattn/go-colorable v0.1.13
	github.com/mattn/go-isatty v0.0.20
	golang.org/x/net v0.24.0 
	golang.org/x/sys v0.19.0 
)